{
  "db": {
    "name": "db",
    "connector": "memory"
  },
  "ComposeMongo": {
    "host": "localhost",
    "port": 27017,
    "url": "",
    "database": "chambitas",
    "password": "",
    "name": "ComposeMongo",
    "user": "",
    "connector": "mongodb"
  }
}
